C:\martin\jdev\projects\SpringBoot\expertaGit\experta-atencionalcliente\src\main\java\ar\com\experta\atencionalcliente\errorHandlers\ServiceException.java
C:\martin\jdev\projects\SpringBoot\expertaGit\experta-atencionalcliente\src\main\java\ar\com\experta\atencionalcliente\model\ConsultaFechaReingresoRequest.java
C:\martin\jdev\projects\SpringBoot\expertaGit\experta-atencionalcliente\src\main\java\ar\com\experta\atencionalcliente\model\ConsultaNominaLogResponse.java
C:\martin\jdev\projects\SpringBoot\expertaGit\experta-atencionalcliente\src\main\java\ar\com\experta\atencionalcliente\model\ConsultaDiasBajaResponse.java
C:\martin\jdev\projects\SpringBoot\expertaGit\experta-atencionalcliente\src\main\java\ar\com\experta\atencionalcliente\model\ConsultaProximoTurnoResponse.java
C:\martin\jdev\projects\SpringBoot\expertaGit\experta-atencionalcliente\src\main\java\ar\com\experta\atencionalcliente\model\ConsultaSaldoRequest.java
C:\martin\jdev\projects\SpringBoot\expertaGit\experta-atencionalcliente\src\main\java\ar\com\experta\atencionalcliente\model\ConsultaMotivoRechazoResponse.java
C:\martin\jdev\projects\SpringBoot\expertaGit\experta-atencionalcliente\src\main\java\ar\com\experta\atencionalcliente\errorHandlers\AtencionAlClienteException.java
C:\martin\jdev\projects\SpringBoot\expertaGit\experta-atencionalcliente\src\main\java\ar\com\experta\atencionalcliente\model\ConsultaFechaDictamenResponse.java
C:\martin\jdev\projects\SpringBoot\expertaGit\experta-atencionalcliente\src\main\java\ar\com\experta\atencionalcliente\model\ConsultaSiniestroResponse.java
C:\martin\jdev\projects\SpringBoot\expertaGit\experta-atencionalcliente\src\main\java\ar\com\experta\atencionalcliente\model\AtencionAlClienteConsultaRequestAbs.java
C:\martin\jdev\projects\SpringBoot\expertaGit\experta-atencionalcliente\src\main\java\ar\com\experta\atencionalcliente\model\ConsultaDenunciaFormalRequest.java
C:\martin\jdev\projects\SpringBoot\expertaGit\experta-atencionalcliente\src\main\java\ar\com\experta\atencionalcliente\model\ConsultaNroContratoRequest.java
C:\martin\jdev\projects\SpringBoot\expertaGit\experta-atencionalcliente\src\main\java\ar\com\experta\atencionalcliente\model\ConsultaFechaDictamenRequest.java
C:\martin\jdev\projects\SpringBoot\expertaGit\experta-atencionalcliente\src\main\java\ar\com\experta\atencionalcliente\utils\AtencionAlClienteUtils.java
C:\martin\jdev\projects\SpringBoot\expertaGit\experta-atencionalcliente\src\main\java\ar\com\experta\atencionalcliente\model\ConsultaPrestadorMedicoResponse.java
C:\martin\jdev\projects\SpringBoot\expertaGit\experta-atencionalcliente\src\main\java\ar\com\experta\atencionalcliente\model\ConsultaDenunciaFormalResponse.java
C:\martin\jdev\projects\SpringBoot\expertaGit\experta-atencionalcliente\src\main\java\ar\com\experta\atencionalcliente\model\ConsultaVerificacionAccRequest.java
C:\martin\jdev\projects\SpringBoot\expertaGit\experta-atencionalcliente\src\main\java\ar\com\experta\atencionalcliente\controller\AtencionAlClienteController.java
C:\martin\jdev\projects\SpringBoot\expertaGit\experta-atencionalcliente\src\main\java\ar\com\experta\atencionalcliente\model\ConsultaCobranzasResponse.java
C:\martin\jdev\projects\SpringBoot\expertaGit\experta-atencionalcliente\src\main\java\ar\com\experta\atencionalcliente\model\ConsultaFechaAudienciaResponse.java
C:\martin\jdev\projects\SpringBoot\expertaGit\experta-atencionalcliente\src\main\java\ar\com\experta\atencionalcliente\monitoring\ServiceInterceptor.java
C:\martin\jdev\projects\SpringBoot\expertaGit\experta-atencionalcliente\src\main\java\ar\com\experta\atencionalcliente\model\ConsultaAlicuotasResponse.java
C:\martin\jdev\projects\SpringBoot\expertaGit\experta-atencionalcliente\src\main\java\ar\com\experta\atencionalcliente\model\ConsultaDiasBajaRequest.java
C:\martin\jdev\projects\SpringBoot\expertaGit\experta-atencionalcliente\src\main\java\ar\com\experta\atencionalcliente\model\ConsultaProximoTurnoRequest.java
C:\martin\jdev\projects\SpringBoot\expertaGit\experta-atencionalcliente\src\main\java\ar\com\experta\atencionalcliente\model\ConsultaVerificacionAccResponse.java
C:\martin\jdev\projects\SpringBoot\expertaGit\experta-atencionalcliente\src\main\java\ar\com\experta\atencionalcliente\service\AtencionAlClienteServiceImpl.java
C:\martin\jdev\projects\SpringBoot\expertaGit\experta-atencionalcliente\src\main\java\ar\com\experta\atencionalcliente\model\ConsultaNominaRequest.java
C:\martin\jdev\projects\SpringBoot\expertaGit\experta-atencionalcliente\src\main\java\ar\com\experta\atencionalcliente\model\ConsultaNroSiniestroRequest.java
C:\martin\jdev\projects\SpringBoot\expertaGit\experta-atencionalcliente\src\main\java\ar\com\experta\atencionalcliente\model\ConsultaCobranzasRequest.java
C:\martin\jdev\projects\SpringBoot\expertaGit\experta-atencionalcliente\src\main\java\ar\com\experta\atencionalcliente\model\ConsultaNroSiniestroResponse.java
C:\martin\jdev\projects\SpringBoot\expertaGit\experta-atencionalcliente\src\main\java\ar\com\experta\atencionalcliente\model\ConsultaUsuarioExpertaResponse.java
C:\martin\jdev\projects\SpringBoot\expertaGit\experta-atencionalcliente\src\main\java\ar\com\experta\atencionalcliente\model\ConsultaMotivoRechazoRequest.java
C:\martin\jdev\projects\SpringBoot\expertaGit\experta-atencionalcliente\src\main\java\ar\com\experta\atencionalcliente\model\ConsultaLiquidacionResponse.java
C:\martin\jdev\projects\SpringBoot\expertaGit\experta-atencionalcliente\src\main\java\ar\com\experta\atencionalcliente\monitoring\ControllerInterceptor.java
C:\martin\jdev\projects\SpringBoot\expertaGit\experta-atencionalcliente\src\main\java\ar\com\experta\atencionalcliente\model\ConsultaNroContratoResponse.java
C:\martin\jdev\projects\SpringBoot\expertaGit\experta-atencionalcliente\src\main\java\ar\com\experta\atencionalcliente\model\ConsultaSiniestroRequest.java
C:\martin\jdev\projects\SpringBoot\expertaGit\experta-atencionalcliente\src\main\java\ar\com\experta\atencionalcliente\model\ConsultaNominaResponse.java
C:\martin\jdev\projects\SpringBoot\expertaGit\experta-atencionalcliente\src\main\java\ar\com\experta\atencionalcliente\model\ConsultaFechaReingresoResponse.java
C:\martin\jdev\projects\SpringBoot\expertaGit\experta-atencionalcliente\src\main\java\ar\com\experta\atencionalcliente\model\ConsultaUsuarioExpertaRequest.java
C:\martin\jdev\projects\SpringBoot\expertaGit\experta-atencionalcliente\src\main\java\ar\com\experta\atencionalcliente\model\ConsultaFechaAudienciaRequest.java
C:\martin\jdev\projects\SpringBoot\expertaGit\experta-atencionalcliente\src\main\java\ar\com\experta\atencionalcliente\model\ConsultaNominaLogRequest.java
C:\martin\jdev\projects\SpringBoot\expertaGit\experta-atencionalcliente\src\main\java\ar\com\experta\atencionalcliente\service\AtencionAlClienteService.java
C:\martin\jdev\projects\SpringBoot\expertaGit\experta-atencionalcliente\src\main\java\ar\com\experta\atencionalcliente\configuration\AtencionAlClienteConfig.java
C:\martin\jdev\projects\SpringBoot\expertaGit\experta-atencionalcliente\src\main\java\ar\com\experta\atencionalcliente\model\ConsultaAlicuotasRequest.java
C:\martin\jdev\projects\SpringBoot\expertaGit\experta-atencionalcliente\src\main\java\ar\com\experta\atencionalcliente\ExpertaAtencionalclienteApplication.java
C:\martin\jdev\projects\SpringBoot\expertaGit\experta-atencionalcliente\src\main\java\ar\com\experta\atencionalcliente\model\ConsultaSaldoResponse.java
C:\martin\jdev\projects\SpringBoot\expertaGit\experta-atencionalcliente\src\main\java\ar\com\experta\atencionalcliente\model\AtencionAlClienteConsultaResponseAbs.java
C:\martin\jdev\projects\SpringBoot\expertaGit\experta-atencionalcliente\src\main\java\ar\com\experta\atencionalcliente\model\ConsultaPrestadorMedicoRequest.java
C:\martin\jdev\projects\SpringBoot\expertaGit\experta-atencionalcliente\src\main\java\ar\com\experta\atencionalcliente\model\ConsultaLiquidacionRequest.java
C:\martin\jdev\projects\SpringBoot\expertaGit\experta-atencionalcliente\src\main\java\ar\com\experta\atencionalcliente\errorHandlers\GlobalExceptionHandler.java
